sim/tests/addu/streamwave.vcd
$date
	Thu Feb 19 17:08:49 2026
$end
$version
	Icarus Verilog
$end
$timescale
	1ps
$end
$scope module userlogic_test $end
$var wire 2 ! ul_write_en_lo [1:0] $end
$var wire 2 " ul_write_en_hi [1:0] $end
$var wire 16 # ul_write_data_lo [15:0] $end
$var wire 16 $ ul_write_data_hi [15:0] $end
$var wire 32 % ul_write_data [31:0] $end
$var wire 32 & ul_write_addr [31:0] $end
$var wire 32 ' ul_test [31:0] $end
$var wire 32 ( ul_status [31:0] $end
$var wire 32 ) ul_read_data [31:0] $end
$var wire 32 * ul_read_addr [31:0] $end
$var wire 32 + ul_instr_addr [31:0] $end
$var wire 32 , ul_instr [31:0] $end
$var wire 15 - output_buffer_addr [14:0] $end
$var wire 15 . input_buffer_addr [14:0] $end
$var wire 32 / data_out [31:0] $end
$var reg 1 0 clk $end
$var reg 32 1 cycle_count [32:1] $end
$var reg 8192 2 dump_vars_filename [8192:1] $end
$var reg 10 3 image_n_columns [9:0] $end
$var reg 10 4 image_n_rows [9:0] $end
$var reg 8192 5 input_buffer_filename [8192:1] $end
$var reg 8192 6 instr_mem_filename [8192:1] $end
$var reg 32 7 num_cycles [32:1] $end
$var reg 33 8 out_end_addr [32:0] $end
$var reg 33 9 out_start_addr [32:0] $end
$var reg 8192 : output_buffer_filename [8192:1] $end
$var reg 15 ; read_addr [14:0] $end
$var reg 1 < rst_n $end
$var reg 8192 = test_result_filename [8192:1] $end
$var reg 32 > ul_command [31:0] $end
$var integer 32 ? dump_vars [31:0] $end
$var integer 32 @ i [31:0] $end
$var integer 32 A outfile [31:0] $end
$var integer 32 B read_input_buffer [31:0] $end
$var integer 32 C read_instr_mem [31:0] $end
$var integer 32 D result [31:0] $end
$var integer 32 E write_output_buffer [31:0] $end
$var integer 32 F write_test_result [31:0] $end
$scope module input_buffer $end
$var wire 15 G addr [14:0] $end
$var wire 1 0 clk $end
$var wire 32 H din [31:0] $end
$var wire 1 I we $end
$var reg 32 J dout [31:0] $end
$upscope $end
$scope module instr_mem $end
$var wire 14 K addr [13:0] $end
$var wire 1 0 clk $end
$var wire 32 L din [31:0] $end
$var wire 1 M we $end
$var reg 32 N dout [31:0] $end
$upscope $end
$scope module output_buffer $end
$var wire 15 O addr [14:0] $end
$var wire 1 0 clk $end
$var wire 32 P din [31:0] $end
$var wire 4 Q we [3:0] $end
$var reg 32 R dout [31:0] $end
$scope begin column[0] $end
$upscope $end
$scope begin column[1] $end
$upscope $end
$scope begin column[2] $end
$upscope $end
$scope begin column[3] $end
$upscope $end
$upscope $end
$scope module ul $end
$var wire 1 S addr_local $end
$var wire 1 0 clk $end
$var wire 32 T command [31:0] $end
$var wire 32 U instr [31:0] $end
$var wire 16 V read_data_hi [15:0] $end
$var wire 16 W read_data_lo [15:0] $end
$var wire 1 < rst_n $end
$var wire 32 X status [31:0] $end
$var wire 32 Y test [31:0] $end
$var wire 2 Z write_en_hi [1:0] $end
$var wire 2 [ write_en_lo [1:0] $end
$var wire 16 \ write_data_lo [15:0] $end
$var wire 16 ] write_data_hi [15:0] $end
$var wire 32 ^ write_data [31:0] $end
$var wire 32 _ write_addr_lo [31:0] $end
$var wire 32 ` write_addr_hi [31:0] $end
$var wire 32 a read_data [31:0] $end
$var wire 32 b read_addr_lo [31:0] $end
$var wire 32 c read_addr_hi [31:0] $end
$var wire 4 d mips_write_en [3:0] $end
$var wire 1 e mips_read_en $end
$var wire 32 f mips_read_data [31:0] $end
$var wire 32 g mips_pc [31:0] $end
$var wire 32 h mips_local_read_data [31:0] $end
$var wire 32 i mips_addr [31:0] $end
$var wire 32 j instr_addr [31:0] $end
$var wire 1 k addr_test $end
$var wire 1 l addr_status $end
$var wire 1 m addr_iobuf $end
$var wire 1 n addr_cmd $end
$var reg 32 o cmd_d [31:0] $end
$var reg 1 p read_cmd_d $end
$var reg 1 q read_iobuf_d $end
$var reg 32 r status_reg [31:0] $end
$var reg 32 s test_reg [31:0] $end
$scope module cpu $end
$var wire 32 t alu_sc_result_ex [31:0] $end
$var wire 1 u atomic_en $end
$var wire 1 0 clk $end
$var wire 1 v en $end
$var wire 1 w en_if $end
$var wire 32 x instr [31:0] $end
$var wire 1 y jump_reg_id $end
$var wire 32 z mem_addr [31:0] $end
$var wire 1 { mem_atomic_id $end
$var wire 32 | mem_read_data [31:0] $end
$var wire 1 e mem_read_en $end
$var wire 1 } mem_sc_mask_id $end
$var wire 32 ~ pc [31:0] $end
$var wire 1 !" reg_we_ex $end
$var wire 1 "" rst $end
$var wire 1 #" rst_id $end
$var wire 1 $" stall_r $end
$var wire 1 %" stall $end
$var wire 32 &" sc_result [31:0] $end
$var wire 32 '" rt_data_id [31:0] $end
$var wire 5 (" rt_addr_id [4:0] $end
$var wire 32 )" rs_data_id [31:0] $end
$var wire 5 *" rs_addr_id [4:0] $end
$var wire 32 +" reg_write_data_wb [31:0] $end
$var wire 32 ," reg_write_data_mem [31:0] $end
$var wire 5 -" reg_write_addr_wb [4:0] $end
$var wire 5 ." reg_write_addr_mem [4:0] $end
$var wire 5 /" reg_write_addr_id [4:0] $end
$var wire 5 0" reg_write_addr_ex [4:0] $end
$var wire 1 1" reg_we_wb $end
$var wire 1 2" reg_we_mem $end
$var wire 1 3" reg_we_id $end
$var wire 1 4" reg_we_cond_ex $end
$var wire 32 5" pc_if [31:0] $end
$var wire 32 6" pc_id [31:0] $end
$var wire 1 7" movz_id $end
$var wire 1 8" movz_ex $end
$var wire 1 9" movn_id $end
$var wire 1 :" movn_ex $end
$var wire 4 ;" mem_write_en [3:0] $end
$var wire 32 <" mem_write_data_id [31:0] $end
$var wire 32 =" mem_write_data_ex [31:0] $end
$var wire 32 >" mem_write_data [31:0] $end
$var wire 1 ?" mem_we_id $end
$var wire 1 @" mem_we_ex $end
$var wire 1 A" mem_signextend_mem $end
$var wire 1 B" mem_signextend_id $end
$var wire 1 C" mem_signextend_ex $end
$var wire 1 D" mem_sc_id $end
$var wire 1 E" mem_sc_ex $end
$var wire 1 F" mem_read_mem $end
$var wire 1 G" mem_read_id $end
$var wire 1 H" mem_read_ex $end
$var wire 8 I" mem_read_data_byte_select [7:0] $end
$var wire 32 J" mem_read_data_byte_extend [31:0] $end
$var wire 32 K" mem_out [31:0] $end
$var wire 1 L" mem_byte_mem $end
$var wire 1 M" mem_byte_id $end
$var wire 1 N" mem_byte_ex $end
$var wire 1 O" mem_atomic_ex $end
$var wire 1 P" jump_target_id $end
$var wire 1 Q" jump_branch_id $end
$var wire 32 R" jr_pc_id [31:0] $end
$var wire 32 S" instr_sav [31:0] $end
$var wire 30 T" instr_number_id [29:0] $end
$var wire 32 U" instr_id [31:0] $end
$var wire 32 V" alu_result_mem [31:0] $end
$var wire 32 W" alu_result_ex [31:0] $end
$var wire 1 X" alu_overflow $end
$var wire 4 Y" alu_opcode_id [3:0] $end
$var wire 4 Z" alu_opcode_ex [3:0] $end
$var wire 1 [" alu_op_y_zero_ex $end
$var wire 32 \" alu_op_y_id [31:0] $end
$var wire 32 ]" alu_op_y_ex [31:0] $end
$var wire 32 ^" alu_op_x_id [31:0] $end
$var wire 32 _" alu_op_x_ex [31:0] $end
$scope module alu_op_x_id2ex $end
$var wire 1 "" ar $end
$var wire 1 0 clk $end
$var wire 1 v en $end
$var wire 1 #" r $end
$var wire 32 `" d [31:0] $end
$var reg 32 a" q [31:0] $end
$upscope $end
$scope module alu_op_y_id2ex $end
$var wire 1 "" ar $end
$var wire 1 0 clk $end
$var wire 1 v en $end
$var wire 1 #" r $end
$var wire 32 b" d [31:0] $end
$var reg 32 c" q [31:0] $end
$upscope $end
$scope module alu_opcode_id2ex $end
$var wire 1 "" ar $end
$var wire 1 0 clk $end
$var wire 1 v en $end
$var wire 1 #" r $end
$var wire 4 d" d [3:0] $end
$var reg 4 e" q [3:0] $end
$upscope $end
$scope module alu_result_ex2mem $end
$var wire 1 0 clk $end
$var wire 32 f" d [31:0] $end
$var wire 1 v en $end
$var wire 1 "" r $end
$var reg 32 g" q [31:0] $end
$upscope $end
$scope module atomic $end
$var wire 1 "" ar $end
$var wire 1 0 clk $end
$var wire 1 { d $end
$var wire 1 u en $end
$var wire 1 #" r $end
$var reg 1 O" q $end
$upscope $end
$scope module d_stage $end
$var wire 1 O" atomic_ex $end
$var wire 1 { atomic_id $end
$var wire 32 h" instr [31:0] $end
$var wire 1 i" isBGEZAL $end
$var wire 1 j" isBGEZNL $end
$var wire 1 k" isBGTZ $end
$var wire 1 l" isBLEZ $end
$var wire 1 m" isBLTZAL $end
$var wire 1 n" isBLTZNL $end
$var wire 1 o" isBranchLink $end
$var wire 1 p" isSLL $end
$var wire 1 q" isSLLV $end
$var wire 1 r" isSRA $end
$var wire 1 s" isSRL $end
$var wire 1 t" isSRLV $end
$var wire 1 u" isShift $end
$var wire 1 v" isShiftImm $end
$var wire 32 w" jr_pc [31:0] $end
$var wire 1 y jump_reg $end
$var wire 1 P" jump_target $end
$var wire 1 } mem_sc_mask_id $end
$var wire 32 x" mem_write_data [31:0] $end
$var wire 1 !" reg_we_ex $end
$var wire 32 y" reg_write_data_mem [31:0] $end
$var wire 1 %" stall $end
$var wire 1 z" use_imm $end
$var wire 32 {" shift_amount [31:0] $end
$var wire 5 |" shamt [4:0] $end
$var wire 32 }" rt_data_in [31:0] $end
$var wire 32 ~" rt_data [31:0] $end
$var wire 5 !# rt_addr [4:0] $end
$var wire 1 "# rs_mem_dependency $end
$var wire 32 ## rs_data_in [31:0] $end
$var wire 32 $# rs_data [31:0] $end
$var wire 5 %# rs_addr [4:0] $end
$var wire 5 &# reg_write_addr_mem [4:0] $end
$var wire 5 '# reg_write_addr_ex [4:0] $end
$var wire 5 (# reg_write_addr [4:0] $end
$var wire 1 2" reg_we_mem $end
$var wire 1 3" reg_we $end
$var wire 1 )# read_from_rt $end
$var wire 1 *# read_from_rs $end
$var wire 5 +# rd_addr [4:0] $end
$var wire 32 ,# pc [31:0] $end
$var wire 6 -# op [5:0] $end
$var wire 1 7" movz $end
$var wire 1 9" movn $end
$var wire 1 ?" mem_we $end
$var wire 1 B" mem_signextend $end
$var wire 1 D" mem_sc_id $end
$var wire 1 H" mem_read_ex $end
$var wire 1 G" mem_read $end
$var wire 1 M" mem_byte $end
$var wire 1 Q" jump_branch $end
$var wire 1 .# isLUI $end
$var wire 1 /# isJ $end
$var wire 1 0# isEqual $end
$var wire 1 1# isBNE $end
$var wire 1 2# isBEQ $end
$var wire 1 3# isALUImm $end
$var wire 16 4# immediate [15:0] $end
$var wire 32 5# imm_upper [31:0] $end
$var wire 32 6# imm_sign_extend [31:0] $end
$var wire 32 7# imm [31:0] $end
$var wire 6 8# funct [5:0] $end
$var wire 1 9# forward_rt_mem $end
$var wire 1 :# forward_rt_ex $end
$var wire 1 ;# forward_rs_mem $end
$var wire 1 <# forward_rs_ex $end
$var wire 32 =# alu_result_ex [31:0] $end
$var wire 32 ># alu_op_y [31:0] $end
$var wire 32 ?# alu_op_x [31:0] $end
$var reg 4 @# alu_opcode [3:0] $end
$upscope $end
$scope module if_stage $end
$var wire 1 0 clk $end
$var wire 1 w en $end
$var wire 26 A# instr_id [25:0] $end
$var wire 1 P" jump_target $end
$var wire 1 "" rst $end
$var wire 32 B# pc_next [31:0] $end
$var wire 32 C# pc_id_p4 [31:0] $end
$var wire 32 D# pc_id [31:0] $end
$var wire 32 E# pc [31:0] $end
$var wire 32 F# j_addr [31:0] $end
$scope module pc_reg $end
$var wire 1 0 clk $end
$var wire 32 G# d [31:0] $end
$var wire 1 w en $end
$var wire 1 "" r $end
$var reg 32 H# q [31:0] $end
$upscope $end
$upscope $end
$scope module instr_sav_dff $end
$var wire 1 0 clk $end
$var wire 32 I# d [31:0] $end
$var wire 1 v en $end
$var wire 1 "" r $end
$var reg 32 J# q [31:0] $end
$upscope $end
$scope module mem_byte_ex2mem $end
$var wire 1 0 clk $end
$var wire 1 v en $end
$var wire 1 "" r $end
$var wire 1 N" d $end
$var reg 1 L" q $end
$upscope $end
$scope module mem_byte_id2ex $end
$var wire 1 "" ar $end
$var wire 1 0 clk $end
$var wire 1 M" d $end
$var wire 1 v en $end
$var wire 1 #" r $end
$var reg 1 N" q $end
$upscope $end
$scope module mem_read_ex2mem $end
$var wire 1 0 clk $end
$var wire 1 v en $end
$var wire 1 "" r $end
$var wire 1 H" d $end
$var reg 1 F" q $end
$upscope $end
$scope module mem_read_id2ex $end
$var wire 1 "" ar $end
$var wire 1 0 clk $end
$var wire 1 K# d $end
$var wire 1 v en $end
$var wire 1 #" r $end
$var reg 1 H" q $end
$upscope $end
$scope module mem_signextend_ex2mem $end
$var wire 1 0 clk $end
$var wire 1 v en $end
$var wire 1 "" r $end
$var wire 1 C" d $end
$var reg 1 A" q $end
$upscope $end
$scope module mem_signextend_id2ex $end
$var wire 1 "" ar $end
$var wire 1 0 clk $end
$var wire 1 B" d $end
$var wire 1 v en $end
$var wire 1 #" r $end
$var reg 1 C" q $end
$upscope $end
$scope module mem_we_id2ex $end
$var wire 1 "" ar $end
$var wire 1 0 clk $end
$var wire 1 L# d $end
$var wire 1 v en $end
$var wire 1 #" r $end
$var reg 1 @" q $end
$upscope $end
$scope module mem_write_data_id2ex $end
$var wire 1 "" ar $end
$var wire 1 0 clk $end
$var wire 32 M# d [31:0] $end
$var wire 1 v en $end
$var wire 1 #" r $end
$var reg 32 N# q [31:0] $end
$upscope $end
$scope module movn $end
$var wire 1 "" ar $end
$var wire 1 0 clk $end
$var wire 1 9" d $end
$var wire 1 v en $end
$var wire 1 #" r $end
$var reg 1 :" q $end
$upscope $end
$scope module movz $end
$var wire 1 "" ar $end
$var wire 1 0 clk $end
$var wire 1 7" d $end
$var wire 1 v en $end
$var wire 1 #" r $end
$var reg 1 8" q $end
$upscope $end
$scope module pc_if2id $end
$var wire 1 0 clk $end
$var wire 32 O# d [31:0] $end
$var wire 1 w en $end
$var wire 1 "" r $end
$var reg 32 P# q [31:0] $end
$upscope $end
$scope module reg_we_ex2mem $end
$var wire 1 0 clk $end
$var wire 1 !" d $end
$var wire 1 v en $end
$var wire 1 "" r $end
$var reg 1 2" q $end
$upscope $end
$scope module reg_we_id2ex $end
$var wire 1 "" ar $end
$var wire 1 0 clk $end
$var wire 1 3" d $end
$var wire 1 v en $end
$var wire 1 #" r $end
$var reg 1 4" q $end
$upscope $end
$scope module reg_we_mem2wb $end
$var wire 1 0 clk $end
$var wire 1 2" d $end
$var wire 1 v en $end
$var wire 1 "" r $end
$var reg 1 1" q $end
$upscope $end
$scope module reg_write_addr_ex2mem $end
$var wire 1 0 clk $end
$var wire 1 v en $end
$var wire 1 "" r $end
$var wire 5 Q# d [4:0] $end
$var reg 5 R# q [4:0] $end
$upscope $end
$scope module reg_write_addr_id2ex $end
$var wire 1 "" ar $end
$var wire 1 0 clk $end
$var wire 5 S# d [4:0] $end
$var wire 1 v en $end
$var wire 1 #" r $end
$var reg 5 T# q [4:0] $end
$upscope $end
$scope module reg_write_addr_mem2wb $end
$var wire 1 0 clk $end
$var wire 5 U# d [4:0] $end
$var wire 1 v en $end
$var wire 1 "" r $end
$var reg 5 V# q [4:0] $end
$upscope $end
$scope module reg_write_data_mem2wb $end
$var wire 1 0 clk $end
$var wire 32 W# d [31:0] $end
$var wire 1 v en $end
$var wire 1 "" r $end
$var reg 32 X# q [31:0] $end
$upscope $end
$scope module sc $end
$var wire 1 "" ar $end
$var wire 1 0 clk $end
$var wire 1 D" d $end
$var wire 1 v en $end
$var wire 1 #" r $end
$var reg 1 E" q $end
$upscope $end
$scope module stall_f_dff $end
$var wire 1 0 clk $end
$var wire 1 %" d $end
$var wire 1 v en $end
$var wire 1 "" r $end
$var reg 1 $" q $end
$upscope $end
$scope module w_stage $end
$var wire 1 0 clk $end
$var wire 1 v en $end
$var wire 1 1" reg_we $end
$var wire 5 Y# reg_write_addr [4:0] $end
$var wire 32 Z# reg_write_data [31:0] $end
$var wire 5 [# rs_addr [4:0] $end
$var wire 5 \# rt_addr [4:0] $end
$var wire 32 ]# rt_data [31:0] $end
$var wire 32 ^# rs_data [31:0] $end
$upscope $end
$scope module x_stage $end
$var wire 32 _# alu_op_x [31:0] $end
$var wire 32 `# alu_op_x_signed [31:0] $end
$var wire 32 a# alu_op_y [31:0] $end
$var wire 32 b# alu_op_y_signed [31:0] $end
$var wire 4 c# alu_opcode [3:0] $end
$var wire 1 d# y_neg $end
$var wire 1 e# x_neg $end
$var wire 1 f# sub_pos_over $end
$var wire 1 g# sub_neg_over $end
$var wire 1 h# sub_check $end
$var wire 1 X" alu_overflow $end
$var wire 1 [" alu_op_y_zero $end
$var wire 1 i# alu_neg $end
$var wire 1 j# add_pos_over $end
$var wire 1 k# add_neg_over $end
$var wire 1 l# add_check $end
$var reg 32 m# alu_result [31:0] $end
$upscope $end
$upscope $end
$scope module mips_local_store $end
$var wire 12 n# addr [11:0] $end
$var wire 1 0 clk $end
$var wire 32 o# din [31:0] $end
$var wire 4 p# we [3:0] $end
$var reg 32 q# dout [31:0] $end
$scope begin column[0] $end
$upscope $end
$scope begin column[1] $end
$upscope $end
$scope begin column[2] $end
$upscope $end
$scope begin column[3] $end
$upscope $end
$upscope $end
$upscope $end
$upscope $end
$enddefinitions $end
#0
$dumpvars
bx q#
b0 p#
b0 o#
b0 n#
b0 m#
0l#
0k#
0j#
0i#
0h#
0g#
0f#
0e#
0d#
b0 c#
b0 b#
b0 a#
b0 `#
b0 _#
bx ^#
bx ]#
bx \#
bx [#
b0 Z#
b0 Y#
b0 X#
b0 W#
b0 V#
b0 U#
b0 T#
bx S#
b0 R#
b0 Q#
b0 P#
b0 O#
b0 N#
bx M#
xL#
xK#
b0 J#
bx I#
b0 H#
b0xxxxxxxxxxxxxxxxxxxxxxxxxx00 G#
b0xxxxxxxxxxxxxxxxxxxxxxxxxx00 F#
b0 E#
b0 D#
b100 C#
b0xxxxxxxxxxxxxxxxxxxxxxxxxx00 B#
bx A#
bx @#
bx ?#
bx >#
b0 =#
0<#
0;#
0:#
09#
bx 8#
bx 7#
bx 6#
bx0000000000000000 5#
bx 4#
x3#
x2#
x1#
x0#
x/#
x.#
bx -#
b0 ,#
bx +#
x*#
x)#
bx (#
b0 '#
b0 &#
bx %#
bx $#
bx ##
0"#
bx !#
bx ~"
bx }"
bx |"
b0xxxxx {"
xz"
b0 y"
bx x"
bx w"
xv"
xu"
xt"
xs"
xr"
xq"
xp"
xo"
xn"
xm"
xl"
xk"
xj"
xi"
bx h"
b0 g"
b0 f"
b0 e"
bx d"
b0 c"
bx b"
b0 a"
bx `"
b0 _"
bx ^"
b0 ]"
bx \"
1["
b0 Z"
bx Y"
0X"
b0 W"
b0 V"
bx U"
b0 T"
b0 S"
bx R"
xQ"
xP"
0O"
0N"
xM"
0L"
bx K"
b0xxxxxxxx J"
bx I"
0H"
xG"
0F"
0E"
xD"
0C"
xB"
0A"
0@"
x?"
b0 >"
b0 ="
bx <"
b0 ;"
0:"
x9"
08"
x7"
b0 6"
b0 5"
04"
x3"
02"
01"
b0 0"
bx /"
b0 ."
b0 -"
b0 ,"
b0 +"
bx *"
bx )"
bx ("
bx '"
b0 &"
0%"
0$"
0#"
0""
0!"
b0 ~
0}
bx |
0{
b0 z
0y
bx x
1w
1v
xu
b0 t
bx s
bx r
xq
xp
bx o
0n
0m
0l
0k
b0 j
b0 i
bx h
b0 g
bx f
0e
b0 d
b0 c
b0 b
bx a
b0 `
b0 _
b0 ^
b0 ]
b0 \
b0 [
b0 Z
bx Y
bx X
bx W
bx V
bx U
b0xxxxxxxxxxxxxxxxxxxx10 T
1S
bx R
b0 Q
b0 P
b0 O
bx N
0M
b0 L
b0 K
bx J
0I
b0 H
b0 G
b1 F
b0 E
b1 D
b1 C
b0 B
bx A
bx @
b1 ?
b0xxxxxxxxxxxxxxxxxxxx10 >
b1110100011001010111001101110100011100110010111101100001011001000110010001110101001011110111010001100101011100110111010000101110011100100110010101110011011101010110110001110100 =
0<
b0 ;
bx :
b0 9
b100000000000000000 8
b1111101000 7
b11101000110010101110011011101000111001100101111011000010110010001100100011101010010111101100010011101010110100101101100011001000010111101100001011100000111000000101110011010000110010101111000 6
bx 5
bx 4
bx 3
b1110100011001010111001101110100011100110010111101100001011001000110010001110101001011110111001101110100011100100110010101100001011011010111011101100001011101100110010100101110011101100110001101100100 2
b0 1
00
bx /
b0 .
b0 -
bx ,
b0 +
b0 *
bx )
bx (
bx '
b0 &
b0 %
b0 $
b0 #
b0 "
b0 !
$end
#5000
b0 {"
0u"
b0 ^"
b0 `"
b0 ?#
b0 R"
b0 w"
b0 $#
0v"
0o"
0Q"
b10000000000000100000000000000000 \"
b10000000000000100000000000000000 b"
b10000000000000100000000000000000 >#
13"
0L#
0K#
0u
b0 )"
b0 ##
b0 ^#
0j"
0i"
0k"
0l"
0n"
0m"
b10000 /"
b10000 (#
b10000 S#
0p"
0s"
0r"
0q"
0t"
b1100 Y"
b1100 d"
b1100 @#
b11111111111111111000000000000010 6#
b10000000000000100000000000000000 7#
b100 B#
b100 G#
02#
01#
0P"
0/#
1z"
0*#
0)#
1.#
03#
0?"
0G"
0M"
0B"
0D"
b1111 -#
b0 *"
b0 %#
b0 [#
b10000 ("
b10000 !#
b10000 \#
b10000 +#
b0 |"
09"
07"
b10 8#
b10000000000000100000000000000000 5#
b1000000000000010 4#
b10000100000000000001000 F#
b100001000000000000010 A#
b111100000100001000000000000010 U"
b111100000100001000000000000010 h"
b111100000100001000000000000010 ,
b111100000100001000000000000010 N
b111100000100001000000000000010 U
b111100000100001000000000000010 x
b111100000100001000000000000010 I#
b0 '
b0 Y
b0 s
b0 (
b0 X
b0 r
0q
0p
b0 o
10
#10000
00
#15000
10
#20000
1""
00
b0xxxxxxxxxxxxxxxxxxxx00 >
b0xxxxxxxxxxxxxxxxxxxx00 T
1<
#25000
0S
00#
b10000000000000100000000000000000 <"
b10000000000000100000000000000000 x"
b10000000000000100000000000000000 M#
b10000000000000100000000000000000 ~"
bx $
bx ]
bx %
bx P
bx #
bx \
1f#
1i#
b1 K
1:#
1!"
bx ^
bx >"
bx o#
1l
b10000000000000100000000000000000 i
b10000000000000100000000000000000 z
b10000000000000100000000000000000 t
b10000000000000100000000000000000 f"
b10000000000000100000000000000000 W"
b10000000000000100000000000000000 =#
b10000000000000100000000000000000 m#
1d#
b1000 B#
b1000 G#
b1 +
b1 j
14"
b10000 0"
b10000 '#
b10000 Q#
b10000 T#
bx ="
bx N#
b1100 Z"
b1100 e"
b1100 c#
b10000000000000100000000000000000 b#
0["
b10000000000000100000000000000000 ]"
b10000000000000100000000000000000 c"
b10000000000000100000000000000000 a#
b111100000100001000000000000010 S"
b111100000100001000000000000010 J#
b100 g
b100 ~
b100 5"
b100 E#
b100 H#
b100 O#
10
#30000
00
b1111100111 1
b0xxxxxxxxxxxxxxxxxxxx01 >
b0xxxxxxxxxxxxxxxxxxxx01 T
#35000
x0#
bx <"
bx x"
bx M#
bx ~"
b1 \"
b1 b"
b1 >#
b10001 /"
b10001 (#
b10001 S#
b11 Y"
b11 d"
b11 @#
b1 6#
b1 7#
1*#
0.#
13#
b1101 -#
0:#
b10001 ("
b10001 !#
b10001 \#
b0 +#
b1 8#
b10000000000000000 5#
b1 4#
b10001000000000000000100 F#
b100010000000000000001 A#
b10 K
b1000000000000010 $
b1000000000000010 ]
b10000000000000100000000000000000 %
b10000000000000100000000000000000 P
b0 #
b0 \
b110100000100010000000000000001 U"
b110100000100010000000000000001 h"
b1100 B#
b1100 G#
b10 +
b10 j
b1 T"
b10000000000000100000000000000000 ^
b10000000000000100000000000000000 >"
b10000000000000100000000000000000 o#
b10000000000000100000000000000000 ,"
b10000000000000100000000000000000 y"
b10000000000000100000000000000000 W#
b110100000100010000000000000001 ,
b110100000100010000000000000001 N
b110100000100010000000000000001 U
b110100000100010000000000000001 x
b110100000100010000000000000001 I#
b1000 g
b1000 ~
b1000 5"
b1000 E#
b1000 H#
b1000 O#
b1000 C#
b100 6"
b100 ,#
b100 D#
b100 P#
b10000000000000100000000000000000 ="
b10000000000000100000000000000000 N#
b10000000000000100000000000000000 V"
b10000000000000100000000000000000 g"
09#
b10000 ."
b10000 &#
b10000 R#
b10000 U#
12"
10
#40000
00
b1111100110 1
#45000
b11111111111111110000000000000000 \"
b11111111111111110000000000000000 b"
b11111111111111110000000000000000 >#
b11111111111111110000000000000000 7#
b1000 /"
b1000 (#
b1000 S#
b1100 Y"
b1100 d"
b1100 @#
b11111111111111111111111111111111 6#
1S
0*#
1.#
0)#
03#
b1111 -#
b1000 ("
b1000 !#
b1000 \#
b11111 +#
b11111 |"
b111111 8#
b11111111111111110000000000000000 5#
b1111111111111111 4#
b1000111111111111111100 F#
b10001111111111111111 A#
bx $
bx ]
bx %
bx P
bx #
bx \
0i#
0j#
b11 K
b111100000010001111111111111111 U"
b111100000010001111111111111111 h"
x0#
bx <"
bx x"
bx M#
bx ~"
bx ^
bx >"
bx o#
0m
0l
b1 i
b1 z
b1 t
b1 f"
b1 W"
b1 =#
b1 m#
0f#
0d#
b10 T"
b10000 B#
b10000 G#
b11 +
b11 j
b111100000010001111111111111111 ,
b111100000010001111111111111111 N
b111100000010001111111111111111 U
b111100000010001111111111111111 x
b111100000010001111111111111111 I#
11"
b10000 -"
b10000 V#
b10000 Y#
b10000000000000100000000000000000 +"
b10000000000000100000000000000000 X#
b10000000000000100000000000000000 Z#
0:#
b10001 0"
b10001 '#
b10001 Q#
b10001 T#
bx ="
bx N#
b11 Z"
b11 e"
b11 c#
b1 b#
b1 ]"
b1 c"
b1 a#
b110100000100010000000000000001 S"
b110100000100010000000000000001 J#
b1100 C#
b1000 6"
b1000 ,#
b1000 D#
b1000 P#
b1100 g
b1100 ~
b1100 5"
b1100 E#
b1100 H#
b1100 O#
10
#50000
00
b1111100101 1
#55000
1u"
1v"
b0 \"
b0 b"
b0 >#
b0 /"
b0 (#
b0 S#
b0 '"
b0 }"
b0 ]#
1p"
b1010 Y"
b1010 d"
b1010 @#
b0 6#
b0 7#
1m
0S
b100000000000000 .
b100000000000000 G
0z"
0*#
1)#
0.#
b0 -#
b0 ("
b0 !#
b0 \#
b0 +#
b0 |"
b0 8#
b0 5#
b0 4#
b0 F#
b0 A#
b100 K
0j#
1f#
1i#
b100000000000000 `
b100000000000000 &
b100000000000000 _
b100000000000000 c
b100000000000000 *
b100000000000000 b
b0 U"
b0 h"
b10100 B#
b10100 G#
b100 +
b100 j
b11 T"
1d#
b11111111111111110000000000000000 i
b11111111111111110000000000000000 z
b11111111111111110000000000000000 t
b11111111111111110000000000000000 f"
b11111111111111110000000000000000 W"
b11111111111111110000000000000000 =#
b11111111111111110000000000000000 m#
10#
b0 <"
b0 x"
b0 M#
b0 ~"
b1 ,"
b1 y"
b1 W#
b0 ,
b0 N
b0 U
b0 x
b0 I#
b10000 g
b10000 ~
b10000 5"
b10000 E#
b10000 H#
b10000 O#
b10000 C#
b1100 6"
b1100 ,#
b1100 D#
b1100 P#
b111100000010001111111111111111 S"
b111100000010001111111111111111 J#
b11111111111111110000000000000000 b#
b11111111111111110000000000000000 ]"
b11111111111111110000000000000000 c"
b11111111111111110000000000000000 a#
b1100 Z"
b1100 e"
b1100 c#
0:#
b1000 0"
b1000 '#
b1000 Q#
b1000 T#
b1 V"
b1 g"
b10001 ."
b10001 &#
b10001 R#
b10001 U#
10
#60000
00
b1111100100 1
#65000
0u"
1*#
0v"
b1111111111111101 \"
b1111111111111101 b"
b1111111111111101 >#
b11111111111111110000000000000000 R"
b11111111111111110000000000000000 w"
b11111111111111110000000000000000 $#
10#
b11111111111111110000000000000000 <"
b11111111111111110000000000000000 x"
b11111111111111110000000000000000 M#
b11111111111111110000000000000000 ~"
b11111111111111110000000000000000 ^"
b11111111111111110000000000000000 `"
b11111111111111110000000000000000 ?#
b1111111111111101 7#
bx )"
bx ##
bx ^#
bx '"
bx }"
bx ]#
b1000 /"
b1000 (#
b1000 S#
b0 {"
0p"
b11 Y"
b11 d"
b11 @#
b1111111111111101 6#
0m
1S
b0 .
b0 G
1z"
0)#
13#
b1101 -#
1;#
0<#
b1000 *"
b1000 %#
b1000 [#
19#
0:#
b1000 ("
b1000 !#
b1000 \#
b11111 +#
b11111 |"
b111101 8#
b11111111111111010000000000000000 5#
b1111111111111101 4#
b100001000111111111111110100 F#
b1000010001111111111111101 A#
b0 $
b0 ]
b0 %
b0 P
b0 #
b0 \
0i#
b0 `
b0 &
b0 _
b0 c
b0 *
b0 b
0j#
b101 K
b110101000010001111111111111101 U"
b110101000010001111111111111101 h"
b11111111111111110000000000000000 ,"
b11111111111111110000000000000000 y"
b11111111111111110000000000000000 W#
b0 ^
b0 >"
b0 o#
b0 i
b0 z
b0 t
b0 f"
b0 W"
b0 =#
b0 m#
0f#
0d#
b100 T"
b11000 B#
b11000 G#
b101 +
b101 j
b110101000010001111111111111101 ,
b110101000010001111111111111101 N
b110101000010001111111111111101 U
b110101000010001111111111111101 x
b110101000010001111111111111101 I#
b10001 -"
b10001 V#
b10001 Y#
b1 +"
b1 X#
b1 Z#
b1000 ."
b1000 &#
b1000 R#
b1000 U#
b11111111111111110000000000000000 V"
b11111111111111110000000000000000 g"
b0 0"
b0 '#
b0 Q#
b0 T#
b0 ="
b0 N#
b1010 Z"
b1010 e"
b1010 c#
b0 b#
1["
b0 ]"
b0 c"
b0 a#
b0 S"
b0 J#
b10100 C#
b10000 6"
b10000 ,#
b10000 D#
b10000 P#
b10100 g
b10100 ~
b10100 5"
b10100 E#
b10100 H#
b10100 O#
10
#70000
00
b1111100011 1
